example/vlt_dump.vcd
$version Generated by VerilatedVcd $end
$date Thu Feb 17 01:55:13 2022 $end
$timescale 1ps $end

 $scope module TOP $end
  $var wire  1 # x1 $end
  $var wire  1 $ x2 $end
  $var wire  1 % x3 $end
  $var wire  1 & z1 $end
  $scope module xnor3 $end
   $var wire  1 # x1 $end
   $var wire  1 $ x2 $end
   $var wire  1 % x3 $end
   $var wire  1 & z1 $end
  $upscope $end
 $upscope $end
$enddefinitions $end


#0
0#
0$
0%
1&
#1
1$
0&
#2
1#
0$
#3
1$
1&
#4
0#
0$
1%
0&
#5
1$
1&
#6
1#
0$
#7
1$
0&
